Project 2: Data Mining, Classification, Prediction
…
nutrition$low_cal <- ifelse(nutrition$calories <= 120, 1, 0)

nutrition <- nutrition %>% select(-calories)

nutrition <- nutrition %>% na.omit()

Cluster Analysis

library(cluster)
library(ggplot2)
library(GGally)
clust_dat <- nutrition %>% dplyr::select(-name, -low_cal)
clust_dat

## # A tibble: 8,722 x 10
##    total_fat cholesterol sodium vitamin_d magnesium protein calcium  iron folate
##        <dbl>       <dbl>  <dbl>     <dbl>     <dbl>   <dbl>   <dbl> <dbl>  <dbl>
##  1       0.1           0      9         0         3    0.26       2  0.47      0
##  2      72             0      0         0       121    9.17      70  2.53     22
##  3       0.2           0      2         0        14    0.98       9  0.23     22
##  4       2.4           0     12         0       184   13.3      180  7.63      0
##  5       2             1     46         0         8    1.1       54  0.14      4
##  6       0.3           0     30         0        15    1.92      22  0.42     57
##  7       0.7           0      3         0        45    4.98     107  2.25    126
##  8      23            73     59         2        21   16.6       16  1.55     18
##  9      24            72    842        18        20   19.8      388  0.33     62
## 10      18             0    490         0        23   23         95  2       102
## #  with 8,712 more rows, and 1 more variable: vitamin_b12 <dbl>
…
